{
  "count": 30,
  "next": "http://127.0.0.1:8000/api/assistance/?limit=10&offset=10",
  "previous": null,
  "results": [
    {
      "id": 1,
      "value_rule": "固定",
      "type": "投票",
      "info_fields": [""],
      "title": "助力标题",
      "slug": "",
      "start_time": null,
      "end_time": null,
      "book_slug": "test_slug",
      "created": "2020-05-21T09:42:15.573765Z",
      "effective_time": 604800,
      "can_assist_yourself": false,
      "value": "1.00",
      "value_gte": 0,
      "value_lt": 10,
      "value_type": 1,
      "total_assists_num_each_one": 1,
      "total_assists_num_each_one_for_obj": 1,
      "can_assists_num_each_one": 1,
      "can_assists_num_each_one_for_obj": 1,
      "initial_value": "0.00",
      "need_user_info": false,
      "picture": null,
      "rules": null
    },
    {
      "id": 2,
      "value_rule": "固定",
      "type": "投票",
      "info_fields": [""],
      "title": "助力标题",
      "slug": "f7959666-034b-4a47-ac9d-c945cc5b094e",
      "start_time": null,
      "end_time": null,
      "book_slug": "test_slug",
      "created": "2020-05-21T10:29:57.641371Z",
      "effective_time": 604800,
      "can_assist_yourself": false,
      "value": "1.00",
      "value_gte": 0,
      "value_lt": 10,
      "value_type": 1,
      "total_assists_num_each_one": 1,
      "total_assists_num_each_one_for_obj": 1,
      "can_assists_num_each_one": 1,
      "can_assists_num_each_one_for_obj": 1,
      "initial_value": "0.00",
      "need_user_info": false,
      "picture": null,
      "rules": null
    },
    {
      "id": 3,
      "value_rule": "固定",
      "type": "投票",
      "info_fields": [""],
      "title": "助力标题",
      "slug": "52d79d4c-abcf-48b4-9ac2-e8389a243988",
      "start_time": null,
      "end_time": null,
      "book_slug": "test_slug",
      "created": "2020-05-21T10:31:00.102367Z",
      "effective_time": 604800,
      "can_assist_yourself": false,
      "value": "1.00",
      "value_gte": 0,
      "value_lt": 10,
      "value_type": 1,
      "total_assists_num_each_one": 1,
      "total_assists_num_each_one_for_obj": 1,
      "can_assists_num_each_one": 1,
      "can_assists_num_each_one_for_obj": 1,
      "initial_value": "0.00",
      "need_user_info": false,
      "picture": null,
      "rules": null
    },
    {
      "id": 4,
      "value_rule": "固定",
      "type": "投票",
      "info_fields": [""],
      "title": "助力标题",
      "slug": "30b64ed1-e909-432b-b02d-0f915d0eba75",
      "start_time": null,
      "end_time": null,
      "book_slug": "test_slug",
      "created": "2020-05-21T10:31:31.138795Z",
      "effective_time": 604800,
      "can_assist_yourself": false,
      "value": "1.00",
      "value_gte": 0,
      "value_lt": 10,
      "value_type": 1,
      "total_assists_num_each_one": 1,
      "total_assists_num_each_one_for_obj": 1,
      "can_assists_num_each_one": 1,
      "can_assists_num_each_one_for_obj": 1,
      "initial_value": "0.00",
      "need_user_info": false,
      "picture": null,
      "rules": null
    },
    {
      "id": 5,
      "value_rule": "固定",
      "type": "投票",
      "info_fields": [""],
      "title": "助力标题",
      "slug": "49ce7a68-cc76-4dbd-bd0b-3cc8ea2d5a77",
      "start_time": null,
      "end_time": null,
      "book_slug": "test_slug",
      "created": "2020-05-21T10:31:43.985472Z",
      "effective_time": 604800,
      "can_assist_yourself": false,
      "value": "1.00",
      "value_gte": 0,
      "value_lt": 10,
      "value_type": 1,
      "total_assists_num_each_one": 1,
      "total_assists_num_each_one_for_obj": 1,
      "can_assists_num_each_one": 1,
      "can_assists_num_each_one_for_obj": 1,
      "initial_value": "0.00",
      "need_user_info": false,
      "picture": null,
      "rules": null
    }
  ]
}
